model,Id,path,sha1,title,subject,description
Collection,9a73d869-e2f0-49af-842f-a564be4f178b,,,,,
Item,db1f8c1b-257d-4286-ae9f-60dab24d644c,itemA,,Item A Title,Foo,Bar|Baz
Item,66f0ee79-4be2-48fb-9b04-232ceb215d00,ItemB,,New Title,Fee,Fi|Fo|Fum
Component,fdd1aa30-361d-4019-a721-6f18477b06b2,/path/to/spec/fixtures/abc001001.tif,2cf23f0035c12b6242093e93d0f7eeba0b1e08e8,,,